<?xml version="1.0" encoding="UTF-8"?>
<svg width="240px" height="240px" viewBox="0 0 240 240" version="1.1" xmlns="http://www.w3.org/2000/svg" xmlns:xlink="http://www.w3.org/1999/xlink">
    <title>mdpi/View/#Model/Check</title>
    <g id="MENUS" stroke="none" stroke-width="1" fill="none" fill-rule="evenodd">
        <g id="View/#Model/Check">
            <circle id="Oval" fill="#000000" fill-rule="nonzero" cx="120" cy="120" r="120"></circle>
            <g id="Group" transform="translate(18.000000, 170.000000)" fill="#4A4A4A" fill-rule="nonzero">
                <g id="D-Key">
                    <g id="Actions-/-Controls-/-play--filled--alt-/-16-Copy-3">
                        <polygon id="Fill" transform="translate(9.000000, 10.000000) scale(-1, 1) rotate(-90.000000) translate(-9.000000, -10.000000) " points="16 6 9 14 2 6"></polygon>
                    </g>
                    <text id="DATA" font-family="URWDINCond-Bold, URW DIN Cond" font-size="26" font-weight="bold">
                        <tspan x="24" y="19">NO</tspan>
                    </text>
                </g>
            </g>
            <g id="Group" transform="translate(212.000000, 112.000000)" fill="#CF0000" fill-rule="nonzero">
                <g id="Actions-/-Controls-/-play--filled--alt-/-16-Copy-3">
                    <polygon id="Fill" transform="translate(11.000000, 10.000000) rotate(-90.000000) translate(-11.000000, -10.000000) " points="18 6 11 14 4 6"></polygon>
                </g>
            </g>
            <g id="VALUE" transform="translate(158.000000, 99.000000)">
                <rect id="Rectangle" stroke="#CF0000" stroke-width="2" x="1" y="1" width="56" height="44" rx="8"></rect>
                <text id="0" fill-rule="nonzero" font-family="URWDINCond-Bold, URW DIN Cond" font-size="32" font-weight="bold" fill="#CF0000">
                    <tspan x="8" y="34">YES</tspan>
                </text>
            </g>
            <text id="FIRST" fill-rule="nonzero" font-family="URWDINCond-Bold, URW DIN Cond" font-size="32" font-weight="bold" fill="#FFFFFF">
                <tspan x="24" y="133">UNPAIR</tspan>
            </text>
            <g id="Group" transform="translate(0.000000, -0.000628)" fill-rule="nonzero">
                <g id="View/Navigation/Navigation">
                    <rect id="Rectangle" fill="#00FFC6" x="0" y="0" width="240" height="38"></rect>
                    <text id="TITLE" font-family="URWDINCond-Bold, URW DIN Cond" font-size="20" font-weight="bold" fill="#000000">
                        <tspan x="65.27" y="28">ARE YOU SURE?</tspan>
                    </text>
                </g>
            </g>
        </g>
    </g>
</svg>