<?xml version="1.0" encoding="UTF-8"?>
<svg width="240px" height="240px" viewBox="0 0 240 240" version="1.1" xmlns="http://www.w3.org/2000/svg" xmlns:xlink="http://www.w3.org/1999/xlink">
    <title>mdpi/View/Base/Default Copy</title>
    <g id="MENU" stroke="none" stroke-width="1" fill="none" fill-rule="evenodd">
        <g id="M2LayoutSummaryLog" fill-rule="nonzero">
            <g id="View/Base/Default-Copy">
                <circle id="Oval" fill="#000000" cx="120" cy="120" r="120"></circle>
                <g id="Group" transform="translate(220.858402, 75.999501)">
                    <path d="M3.72563995,1 C9.06978233,14.6757525 11.86282,29.5185835 11.86282,44.7279435 C11.86282,59.6650941 9.21283657,74.1065494 4.08649745,87.5235545 L3.72483018,88.4579558 L0.00080976687,86.9979312 C5.18122333,73.784479 7.86281997,59.5142734 7.86281997,44.7279435 C7.86281997,30.3507241 5.28403828,16.3197425 0.34818352,3.35842066 L-1.19904087e-14,2.45588701 L3.72563995,1 Z" id="M2/Gary" fill="#4A4A4A"></path>
                    <path d="M10.4310819,26.0004134 L6.38196707,26.0003308 C5.73229345,21.9375825 4.87162912,17.9313632 3.80547195,13.9996122 L7.94489136,14.0000222 C8.97367136,17.936231 9.80407601,21.9419022 10.4310819,26.0004134 Z" id="M2/Blue-Green" fill="#00FFC6"></path>
                </g>
                <g id="Actions-/-Controls-/-play--filled--alt-/-16-Copy-2" transform="translate(202.000000, 170.000000)" fill="#EFEFEF">
                    <polygon id="Fill" points="14.375 7.5 10 12.5 5.625 7.5"></polygon>
                </g>
                <g id="Actions-/-Controls-/-play--filled--alt-/-16-Copy-3" transform="translate(202.000000, 50.000000)" fill="#EFEFEF">
                    <polygon id="Fill" points="5.625 12.5 10 7.5 14.375 12.5"></polygon>
                </g>
                <g id="Group" transform="translate(125.000000, 42.000000)" font-family="URWDINCond-Bold, URW DIN Cond" font-weight="bold">
                    <g id="View/Data/Bottom/With-Unit">
                        <g id="Data" transform="translate(14.000000, 26.000000)" fill="#FFFFFF" font-size="32">
                            <g id="Min">
                                <text id="0:00">
                                    <tspan x="0.04" y="23">11:00</tspan>
                                </text>
                            </g>
                        </g>
                        <g id="Title" transform="translate(20.000000, 0.000000)" fill="#00FFC6" font-size="20">
                            <g id="Title" transform="translate(2.000000, 0.000000)">
                                <text id="DATA">
                                    <tspan x="0.5" y="19">DIVE IN</tspan>
                                </text>
                            </g>
                        </g>
                    </g>
                </g>
                <g id="Group" transform="translate(125.000000, 100.000000)" font-family="URWDINCond-Bold, URW DIN Cond" font-weight="bold">
                    <g id="View/Data/Bottom/With-Unit">
                        <g id="Data" transform="translate(8.000000, 26.000000)" fill="#FFFFFF">
                            <g id="Group" transform="translate(50.000000, 0.000000)" font-size="26">
                                <g id="View/Data/#/Bottom-Data-Second">
                                    <text id="0">
                                        <tspan x="0.1" y="23">m</tspan>
                                    </text>
                                </g>
                            </g>
                            <g id="Group" font-size="32">
                                <g id="Min">
                                    <text id="0:00">
                                        <tspan x="0.48" y="23">23.2</tspan>
                                    </text>
                                </g>
                            </g>
                        </g>
                        <g id="Title" transform="translate(-10.000000, 0.000000)" fill="#00FFC6" font-size="20">
                            <g id="Title" transform="translate(2.000000, 0.000000)">
                                <text id="DATA">
                                    <tspan x="0.7" y="19">MAX DEPTH</tspan>
                                </text>
                            </g>
                        </g>
                    </g>
                </g>
                <g id="View/Data/Bottom/With-Unit" transform="translate(125.000000, 158.000000)">
                    <g id="Data" transform="translate(5.000000, 26.000000)" fill="#FFFFFF" font-family="URWDINCond-Bold, URW DIN Cond" font-weight="bold">
                        <g id="Group" transform="translate(50.000000, 0.000000)" font-size="26">
                            <g id="Sec">
                                <text id="0">
                                    <tspan x="0.864" y="23">°c</tspan>
                                </text>
                            </g>
                        </g>
                        <g id="Group" font-size="32">
                            <g id="Min">
                                <text id="0:00">
                                    <tspan x="0" y="23">23.0</tspan>
                                </text>
                            </g>
                        </g>
                    </g>
                    <g id="Title" fill="#00FFC6">
                        <g id="Group" transform="translate(16.000000, 0.000000)" font-family="URWDINCond-Bold, URW DIN Cond" font-size="20" font-weight="bold">
                            <g id="Title">
                                <text id="DATA">
                                    <tspan x="0.1" y="19">LOWEST</tspan>
                                </text>
                            </g>
                        </g>
                        <g id="Icon/ic_heart" transform="translate(0.000000, 5.000000)">
                            <path d="M7,0 C8.1045695,0 9,0.8954305 9,2 L9.00092729,7.62799167 C9.90714649,8.26053422 10.5,9.31103293 10.5,10.5 C10.5,12.4329966 8.93299662,14 7,14 C5.06700338,14 3.5,12.4329966 3.5,10.5 C3.5,9.31059757 4.09328775,8.25976492 5.00006832,7.62729699 L5,2 C5,0.8954305 5.8954305,0 7,0 Z M7,1 C6.48716416,1 6.06449284,1.38604019 6.00672773,1.88337887 L6,2 L6,5 L8,5 L8,2 C8,1.44771525 7.55228475,1 7,1 Z" id="Combined-Shape"></path>
                        </g>
                    </g>
                </g>
                <g id="Group" transform="translate(32.000000, 100.000000)" font-family="URWDINCond-Bold, URW DIN Cond" font-weight="bold">
                    <g id="View/Data/Bottom/With-Unit">
                        <g id="Data" transform="translate(15.000000, 26.000000)" fill="#FFFFFF" font-size="32">
                            <g id="Min">
                                <text id="0:00">
                                    <tspan x="0.096" y="23">50'30</tspan>
                                </text>
                            </g>
                        </g>
                        <g id="Title" transform="translate(2.000000, 0.000000)" fill="#00FFC6" font-size="20">
                            <g id="Title" transform="translate(2.000000, 0.000000)">
                                <text id="DATA">
                                    <tspan x="0.12" y="19">DIVE TIME</tspan>
                                </text>
                            </g>
                        </g>
                    </g>
                </g>
                <g id="Group" transform="translate(32.000000, 158.000000)" font-family="URWDINCond-Bold, URW DIN Cond" font-weight="bold">
                    <g id="View/Data/Bottom/With-Unit">
                        <g id="Data" transform="translate(26.000000, 26.000000)" fill="#FFFFFF">
                            <g id="Group" transform="translate(29.000000, 0.000000)" font-size="26">
                                <g id="View/Data/#/Bottom-Data-Second">
                                    <text id="0">
                                        <tspan x="0.032" y="23">%</tspan>
                                    </text>
                                </g>
                            </g>
                            <g id="Group" font-size="32">
                                <g id="Min">
                                    <text id="0:00">
                                        <tspan x="0.12" y="23">22</tspan>
                                    </text>
                                </g>
                            </g>
                        </g>
                        <g id="Title" transform="translate(20.000000, 0.000000)" fill="#00FFC6" font-size="20">
                            <g id="Title" transform="translate(2.000000, 0.000000)">
                                <text id="DATA">
                                    <tspan x="0.2" y="19">NITROX</tspan>
                                </text>
                            </g>
                        </g>
                    </g>
                </g>
                <g id="Group" transform="translate(32.000000, 42.000000)" font-family="URWDINCond-Bold, URW DIN Cond" font-weight="bold">
                    <g id="View/Data/Bottom/With-Unit">
                        <g id="Data" transform="translate(21.000000, 26.000000)" fill="#FFFFFF">
                            <g id="Group" transform="translate(37.000000, 0.000000)" font-size="26">
                                <g id="View/Data/#/Bottom-Data-Second">
                                    <text id="0">
                                        <tspan x="0.1" y="23">m</tspan>
                                    </text>
                                </g>
                            </g>
                            <g id="Group" font-size="32">
                                <g id="Min">
                                    <text id="0:00">
                                        <tspan x="0.92" y="23">5.4</tspan>
                                    </text>
                                </g>
                            </g>
                        </g>
                        <g id="Title" transform="translate(44.000000, 0.000000)" fill="#00FFC6" font-size="20">
                            <g id="Title" transform="translate(2.000000, 0.000000)">
                                <text id="DATA">
                                    <tspan x="0.78" y="19">AVG</tspan>
                                </text>
                            </g>
                        </g>
                    </g>
                </g>
                <g id="Group" transform="translate(90.000000, 212.000000)" fill="#00B7FF" font-family="URWDINCond-Bold, URW DIN Cond" font-size="20" font-weight="bold">
                    <g id="View/State/Mode">
                        <text id="MODE">
                            <tspan x="14.42" y="22">1/23</tspan>
                        </text>
                    </g>
                </g>
                <g id="View/Navigation/Navigation" transform="translate(0.000000, -0.000628)">
                    <rect id="Rectangle" fill="#00FFC6" x="0" y="0" width="240" height="38"></rect>
                    <text id="TITLE" font-family="URWDINCond-Bold, URW DIN Cond" font-size="20" font-weight="bold" fill="#000000">
                        <tspan x="81.9" y="28">2020.12.23</tspan>
                    </text>
                </g>
            </g>
        </g>
    </g>
</svg>